Functional Programming for Educational Data Science – EDLD 653
…
Dimensions

Less common

Arbitrary metadata

Examples

Please follow along!

library(palmerpenguins)
penguins

# A tibble: 344 × 8
   species island    bill_length_mm bill_depth_mm flipper_length_mm body_mass_g
   <fct>   <fct>              <dbl>         <dbl>             <int>       <int>
 1 Adelie  Torgersen           39.1          18.7               181        3750
 2 Adelie  Torgersen           39.5          17.4               186        3800
 3 Adelie  Torgersen           40.3          18                 195        3250
 4 Adelie  Torgersen           NA            NA                  NA          NA
 5 Adelie  Torgersen           36.7          19.3               193        3450
 6 Adelie  Torgersen           39.3          20.6               190        3650
 7 Adelie  Torgersen           38.9          17.8               181        3625
 8 Adelie  Torgersen           39.2          19.6               195        4675
 9 Adelie  Torgersen           34.1          18.1               193        3475
10 Adelie  Torgersen           42            20.2               190        4250
# ℹ 334 more rows
# ℹ 2 more variables: sex <fct>, year <int>
…
tibbles

Note dropping the data frame attribute is the default for a data.frame but NOT a tibble

Maintains data frame

mtcars_tbl <- tibble::as_tibble(mtcars)
mtcars_tbl[ ,4]

# A tibble: 32 × 1
      hp
   <dbl>
 1   110
 2   110
 3    93
 4   110
 5   175
 6   105
 7   245
 8    62
 9    95
10   123
# ℹ 22 more rows
…
