EDLD 653 – Week 3: Intro to {purrr}
…
Return a vector

map_dbl(df_list, ~mean(.x$var1))

[1] 3 2 1

Some more examples

Please follow along

econ <- economics |>
    mutate(year = lubridate::year(date))
econ

# A tibble: 574 × 7
   date         pce    pop psavert uempmed unemploy  year
   <date>     <dbl>  <dbl>   <dbl>   <dbl>    <dbl> <dbl>
 1 1967-07-01  507. 198712    12.6     4.5     2944  1967
 2 1967-08-01  510. 198911    12.6     4.7     2945  1967
 3 1967-09-01  516. 199113    11.9     4.6     2958  1967
 4 1967-10-01  512. 199311    12.9     4.9     3143  1967
 5 1967-11-01  517. 199498    12.8     4.7     3066  1967
 6 1967-12-01  525. 199657    11.8     4.8     3018  1967
 7 1968-01-01  531. 199808    11.7     5.1     2878  1968
 8 1968-02-01  534. 199920    12.3     4.5     3001  1968
 9 1968-03-01  544. 200056    11.7     4.1     2877  1968
10 1968-04-01  544  200208    12.3     4.6     2709  1968
# ℹ 564 more rows
…
We could also have done the previous in a pipeline with a list column

mods_econ <- econ |> 
  group_by(year) |> 
  nest() |> # : split(econ, econ$year)
  mutate(data = map(data,
                    ~mutate(.x, percent = unemploy / pop)), # compute 'percent'
         mods = map(data, 
                   ~lm(percent ~ pce, data = .x)), # fit the model
         coefs = map(mods, coef), # extract coefficients
         slopes = map_dbl(coefs, 2) # extract slopes
         )
mods_econ  

# A tibble: 49 × 5
# Groups:   year [49]
    year data              mods   coefs          slopes
   <dbl> <list>            <list> <list>          <dbl>
 1  1967 <tibble [6 × 7]>  <lm>   <dbl [2]>  0.0000131 
 2  1968 <tibble [12 × 7]> <lm>   <dbl [2]> -0.0000250 
 3  1969 <tibble [12 × 7]> <lm>   <dbl [2]>  0.0000320 
 4  1970 <tibble [12 × 7]> <lm>   <dbl [2]>  0.000214  
 5  1971 <tibble [12 × 7]> <lm>   <dbl [2]>  0.0000118 
 6  1972 <tibble [12 × 7]> <lm>   <dbl [2]> -0.0000271 
 7  1973 <tibble [12 × 7]> <lm>   <dbl [2]> -0.00000605
 8  1974 <tibble [12 × 7]> <lm>   <dbl [2]>  0.0000805 
 9  1975 <tibble [12 × 7]> <lm>   <dbl [2]> -0.00000164
10  1976 <tibble [12 × 7]> <lm>   <dbl [2]>  0.00000941
# ℹ 39 more rows
…
