Week 4: Batch loading data & list columns – EDLD 653
…
Swap for map_dfr

Try it - what happens?

. . .

sims_df <- map_dfr(seq(10, 150, 5), simulate, 100, 10)
sims_df

# A tibble: 2,320 × 2
   sample_id sample
       <int>  <dbl>
 1         1   93.6
 2         2  108. 
 3         3  107. 
 4         4   92.6
 5         5  112. 
 6         6   90.6
 7         7  107. 
 8         8  117. 
 9         9  106. 
10        10   99.2
# ℹ 2,310 more rows

Notice a problem here?

sims_df[1:26, ]

# A tibble: 26 × 2
   sample_id sample
       <int>  <dbl>
 1         1   93.6
 2         2  108. 
 3         3  107. 
 4         4   92.6
 5         5  112. 
 6         6   90.6
 7         7  107. 
 8         8  117. 
 9         9  106. 
10        10   99.2
# ℹ 16 more rows
…
Batch load

Loop through the directories and import() or read_csv()

files <- dir_ls(
  here::here("data", "pfiles_sim"), 
  glob = "*.csv"
)
batch <- map_dfr(files, read_csv)
batch

# A tibble: 15,945 × 22
   Entry  Theta Status Count RawScore    SE Infit Infit_Z Outfit Outfit_Z
   <dbl>  <dbl>  <dbl> <dbl>    <dbl> <dbl> <dbl>   <dbl>  <dbl>    <dbl>
 1   123  1.27       1    36       23 0.371  0.93   -0.34   0.82    -0.62
 2    88  1.55       1    36       25 0.385  0.95   -0.37   0.81    -0.56
 3   105  3.28       1    36       33 0.619  0.9    -0.04   1.63     1.03
 4   153  4.48       1    36       35 1.02   0.93    0.23   0.35    -0.16
 5   437  2.67       1    36       31 0.501  0.92   -0.18   0.88    -0.12
 6   307  5.71       0    36       36 1.84   1       0      1        0   
 7   305  3.73       1    36       34 0.741  1.06    0.31   0.86     0.17
 8    42  0.609      1    36       18 0.36   1.55    2.56   1.74     3.31
 9    59 -2.62       1    36        3 1.03   0.85    0.06   0.17    -0.37
10   304  5.71       0    36       36 1.84   1       0      1        0   
# ℹ 15,935 more rows
# ℹ 12 more variables: Displacement <dbl>, PointMeasureCorr <dbl>,
#   Weight <dbl>, ObservMatch <dbl>, ExpectMatch <dbl>,
#   PointMeasureExpected <dbl>, RMSR <dbl>, WMLE <dbl>, testeventid <dbl>,
#   ssid <dbl>, asmtprmrydsbltycd <dbl>, asmtscndrydsbltycd <dbl>
…
We’ve lost a lot of info - no way to identify which file is which

Try to fix it!

Add .id

. . .

Make sure you have this object

batch2 <- map_dfr(files, read_csv, .id = "file")
batch2

# A tibble: 15,945 × 23
   file   Entry  Theta Status Count RawScore    SE Infit Infit_Z Outfit Outfit_Z
   <chr>  <dbl>  <dbl>  <dbl> <dbl>    <dbl> <dbl> <dbl>   <dbl>  <dbl>    <dbl>
 1 C:/Us…   123  1.27       1    36       23 0.371  0.93   -0.34   0.82    -0.62
 2 C:/Us…    88  1.55       1    36       25 0.385  0.95   -0.37   0.81    -0.56
 3 C:/Us…   105  3.28       1    36       33 0.619  0.9    -0.04   1.63     1.03
 4 C:/Us…   153  4.48       1    36       35 1.02   0.93    0.23   0.35    -0.16
 5 C:/Us…   437  2.67       1    36       31 0.501  0.92   -0.18   0.88    -0.12
 6 C:/Us…   307  5.71       0    36       36 1.84   1       0      1        0   
 7 C:/Us…   305  3.73       1    36       34 0.741  1.06    0.31   0.86     0.17
 8 C:/Us…    42  0.609      1    36       18 0.36   1.55    2.56   1.74     3.31
 9 C:/Us…    59 -2.62       1    36        3 1.03   0.85    0.06   0.17    -0.37
10 C:/Us…   304  5.71       0    36       36 1.84   1       0      1        0   
# ℹ 15,935 more rows
# ℹ 12 more variables: Displacement <dbl>, PointMeasureCorr <dbl>,
#   Weight <dbl>, ObservMatch <dbl>, ExpectMatch <dbl>,
#   PointMeasureExpected <dbl>, RMSR <dbl>, WMLE <dbl>, testeventid <dbl>,
#   ssid <dbl>, asmtprmrydsbltycd <dbl>, asmtscndrydsbltycd <dbl>

Rows per file

batch2 |>
    count(file) 

# A tibble: 31 × 2
   file                                                                        n
   <chr>                                                                   <int>
 1 C:/Users/jnese/Desktop/BRT/Teaching/3_Functional-Programming/functiona…   453
 2 C:/Users/jnese/Desktop/BRT/Teaching/3_Functional-Programming/functiona…   460
 3 C:/Users/jnese/Desktop/BRT/Teaching/3_Functional-Programming/functiona…   453
 4 C:/Users/jnese/Desktop/BRT/Teaching/3_Functional-Programming/functiona…   438
 5 C:/Users/jnese/Desktop/BRT/Teaching/3_Functional-Programming/functiona…   453
 6 C:/Users/jnese/Desktop/BRT/Teaching/3_Functional-Programming/functiona…   540
 7 C:/Users/jnese/Desktop/BRT/Teaching/3_Functional-Programming/functiona…   536
 8 C:/Users/jnese/Desktop/BRT/Teaching/3_Functional-Programming/functiona…   540
 9 C:/Users/jnese/Desktop/BRT/Teaching/3_Functional-Programming/functiona…   540
10 C:/Users/jnese/Desktop/BRT/Teaching/3_Functional-Programming/functiona…   585
# ℹ 21 more rows
…
Remove the here::here() path from string

batch2 <- batch2 |>
    mutate(
      file = str_replace_all(
        file, 
        here::here("data", "pfiles_sim", "/"), # noticed I included "/"; try it without 
        ""
      )
    )

batch2 |> 
  count(file)

# A tibble: 31 × 2
   file                           n
   <chr>                      <int>
 1 g11ELApfiles18_sim.csv       453
 2 g11Mathpfiles18_sim.csv      460
 3 g11Rdgpfiles18_sim.csv       453
 4 g11Sciencepfiles18_sim.csv   438
 5 g11Wripfiles18_sim.csv       453
 6 g3ELApfiles18_sim.csv        540
 7 g3Mathpfiles18_sim.csv       536
 8 g3Rdgpfiles18_sim.csv        540
 9 g3Wripfiles18_sim.csv        540
10 g4ELApfiles18_sim.csv        585
# ℹ 21 more rows
…
Also, there’s other ways you could extract the same info

But again, GenAI is very helpful for regular expression!

batch2 |>
    mutate(
      grade = str_replace_all(
        file, 
        "g(\\d?\\d).+", 
        "\\1"
    )
  ) |>
    select(file, grade)

# A tibble: 15,945 × 2
   file                   grade
   <chr>                  <chr>
 1 g11ELApfiles18_sim.csv 11   
 2 g11ELApfiles18_sim.csv 11   
 3 g11ELApfiles18_sim.csv 11   
 4 g11ELApfiles18_sim.csv 11   
 5 g11ELApfiles18_sim.csv 11   
 6 g11ELApfiles18_sim.csv 11   
 7 g11ELApfiles18_sim.csv 11   
 8 g11ELApfiles18_sim.csv 11   
 9 g11ELApfiles18_sim.csv 11   
10 g11ELApfiles18_sim.csv 11   
# ℹ 15,935 more rows

parse_number()

In this case parse_number() also works - but note that it would not work to extract the “year”

batch2 |>
      mutate(grade = parse_number(file)) |> 
  select(file, grade)

# A tibble: 15,945 × 2
   file                   grade
   <chr>                  <dbl>
 1 g11ELApfiles18_sim.csv    11
 2 g11ELApfiles18_sim.csv    11
 3 g11ELApfiles18_sim.csv    11
 4 g11ELApfiles18_sim.csv    11
 5 g11ELApfiles18_sim.csv    11
 6 g11ELApfiles18_sim.csv    11
 7 g11ELApfiles18_sim.csv    11
 8 g11ELApfiles18_sim.csv    11
 9 g11ELApfiles18_sim.csv    11
10 g11ELApfiles18_sim.csv    11
# ℹ 15,935 more rows

Extract “grade” and “year”

batch2 |>
    mutate(
      grade = str_replace_all(
        file, "g(\\d?\\d).+", "\\1"
    ),
      year = str_replace_all( 
        file, ".+files(\\d\\d)_sim.+", "\\1" 
    ) 
  ) |> 
    select(file, grade, year)

# A tibble: 15,945 × 3
   file                   grade year 
   <chr>                  <chr> <chr>
 1 g11ELApfiles18_sim.csv 11    18   
 2 g11ELApfiles18_sim.csv 11    18   
 3 g11ELApfiles18_sim.csv 11    18   
 4 g11ELApfiles18_sim.csv 11    18   
 5 g11ELApfiles18_sim.csv 11    18   
 6 g11ELApfiles18_sim.csv 11    18   
 7 g11ELApfiles18_sim.csv 11    18   
 8 g11ELApfiles18_sim.csv 11    18   
 9 g11ELApfiles18_sim.csv 11    18   
10 g11ELApfiles18_sim.csv 11    18   
# ℹ 15,935 more rows
Extract “content” area

batch2 |>
    mutate(grade = str_replace_all(file, 
                                   "g(\\d?\\d).+", 
                                   "\\1"),
           year = str_replace_all(file, 
                                  ".+files(\\d\\d)_sim.+", 
                                  "\\1"),
           content = str_replace_all(file, 
                                     "g\\d?\\d(.+)pfiles.+", 
                                     "\\1")) |> 
    select(file, grade, year, content)

# A tibble: 15,945 × 4
   file                   grade year  content
   <chr>                  <chr> <chr> <chr>  
 1 g11ELApfiles18_sim.csv 11    18    ELA    
 2 g11ELApfiles18_sim.csv 11    18    ELA    
 3 g11ELApfiles18_sim.csv 11    18    ELA    
 4 g11ELApfiles18_sim.csv 11    18    ELA    
 5 g11ELApfiles18_sim.csv 11    18    ELA    
 6 g11ELApfiles18_sim.csv 11    18    ELA    
 7 g11ELApfiles18_sim.csv 11    18    ELA    
 8 g11ELApfiles18_sim.csv 11    18    ELA    
 9 g11ELApfiles18_sim.csv 11    18    ELA    
10 g11ELApfiles18_sim.csv 11    18    ELA    
# ℹ 15,935 more rows
…
Final product

In this case, we basically have a tidy data frame already!

We’ve reduced our problem from 31 files to a single file

d

# A tibble: 15,945 × 25
       ssid grade  year content testeventid asmtprmrydsbltycd asmtscndrydsbltycd
      <dbl> <int> <int> <chr>         <dbl>             <dbl>              <dbl>
 1  9466908    11    11 ELA          148933                 0                  0
 2  7683685    11    11 ELA          147875                10                  0
 3  9025693    11    11 ELA          143699                40                 20
 4 10099824    11    11 ELA          143962                82                  0
 5 18886078    11    11 ELA          150680                10                  0
 6 10606750    11    11 ELA          144583                80                 80
 7 10541306    11    11 ELA          145204                50                  0
 8  7632967    11    11 ELA          148926                10                  0
 9  7661118    11    11 ELA          148893                50                  0
10 10547177    11    11 ELA          144583                82                  0
# ℹ 15,935 more rows
# ℹ 18 more variables: Entry <dbl>, Theta <dbl>, Status <dbl>, Count <dbl>,
#   RawScore <dbl>, SE <dbl>, Infit <dbl>, Infit_Z <dbl>, Outfit <dbl>,
#   Outfit_Z <dbl>, Displacement <dbl>, PointMeasureCorr <dbl>, Weight <dbl>,
#   ObservMatch <dbl>, ExpectMatch <dbl>, PointMeasureExpected <dbl>,
#   RMSR <dbl>, WMLE <dbl>
…
Summary stats

d |>
    group_by(grade, content, asmtprmrydsbltycd) |>
    summarize(mean = mean(Theta)) |>
    pivot_wider(names_from = content, 
                values_from = mean)

# A tibble: 77 × 7
# Groups:   grade [7]
   grade asmtprmrydsbltycd     ELA    Math    Rdg    Wri Science
   <int>             <dbl>   <dbl>   <dbl>  <dbl>  <dbl>   <dbl>
 1     3                 0 -0.0736 -1.21    1.01   1.61       NA
 2     3                10  0.370  -0.818   0.518  0.321      NA
 3     3                20 -0.0633 -1.25    1.52  -0.578      NA
 4     3                40 -1.88   -3.56   -1.76  -0.751      NA
 5     3                50  0.946  -0.0919  0.979  1.19       NA
 6     3                60  0.841   1.04    2.18   1.07       NA
 7     3                70 -1.10   -1.52   -0.845 -1.01       NA
 8     3                74  0.996   0.0208  0.6    1.29       NA
 9     3                80 -0.144  -0.533   0.679  0.269      NA
10     3                82  0.371  -1.08    0.568  0.344      NA
# ℹ 67 more rows
…
The rest is the same

g5 <- map_dfr(g5_paths, read_csv, .id = "file") |>
  mutate(
      file = str_replace_all(
        file, 
        here::here("data", "pfiles_sim", "/"), 
        ""
      )
    )
g5

# A tibble: 2,632 × 23
   file   Entry  Theta Status Count RawScore    SE Infit Infit_Z Outfit Outfit_Z
   <chr>  <dbl>  <dbl>  <dbl> <dbl>    <dbl> <dbl> <dbl>   <dbl>  <dbl>    <dbl>
 1 g5ELA…   375  3.15       1    36       32 0.551  1.22    0.91   2.1      2.26
 2 g5ELA…   305  0.366      1    36       16 0.389  0.94   -0.31   0.98    -0.39
 3 g5ELA…   163 -4.95      -1    36        0 1.85   1       0      1        0   
 4 g5ELA…   524 -4.95      -1    36        0 1.85   1       0      1        0   
 5 g5ELA…    81  3.15       1    36       32 0.551  0.96    0      0.58    -0.24
 6 g5ELA…   325  1.72       1    36       25 0.400  1.14    0.92   1.23     0.57
 7 g5ELA…   163  1.88       1    36       26 0.408  0.82   -1.08   0.57    -0.91
 8 g5ELA…   116  5.93       0    36       36 1.84   1       0      1        0   
 9 g5ELA…   273  1.41       1    36       23 0.389  1.08    0.44   0.94     0.1 
10 g5ELA…   202  1.88       1    36       26 0.408  0.79   -0.84   0.76    -0.63
# ℹ 2,622 more rows
# ℹ 12 more variables: Displacement <dbl>, PointMeasureCorr <dbl>,
#   Weight <dbl>, ObservMatch <dbl>, ExpectMatch <dbl>,
#   PointMeasureExpected <dbl>, RMSR <dbl>, WMLE <dbl>, testeventid <dbl>,
#   ssid <dbl>, asmtprmrydsbltycd <dbl>, asmtscndrydsbltycd <dbl>
…
Try again

files <- list.files(here::here("data", "pfiles_sim"), 
                    pattern = "*.csv", 
                    full.names = TRUE)
batch3 <- map_dfr(files, read_csv, .id = "file")
batch3

# A tibble: 15,945 × 23
   file  Entry  Theta Status Count RawScore    SE Infit Infit_Z Outfit Outfit_Z
   <chr> <dbl>  <dbl>  <dbl> <dbl>    <dbl> <dbl> <dbl>   <dbl>  <dbl>    <dbl>
 1 1       123  1.27       1    36       23 0.371  0.93   -0.34   0.82    -0.62
 2 1        88  1.55       1    36       25 0.385  0.95   -0.37   0.81    -0.56
 3 1       105  3.28       1    36       33 0.619  0.9    -0.04   1.63     1.03
 4 1       153  4.48       1    36       35 1.02   0.93    0.23   0.35    -0.16
 5 1       437  2.67       1    36       31 0.501  0.92   -0.18   0.88    -0.12
 6 1       307  5.71       0    36       36 1.84   1       0      1        0   
 7 1       305  3.73       1    36       34 0.741  1.06    0.31   0.86     0.17
 8 1        42  0.609      1    36       18 0.36   1.55    2.56   1.74     3.31
 9 1        59 -2.62       1    36        3 1.03   0.85    0.06   0.17    -0.37
10 1       304  5.71       0    36       36 1.84   1       0      1        0   
# ℹ 15,935 more rows
# ℹ 12 more variables: Displacement <dbl>, PointMeasureCorr <dbl>,
#   Weight <dbl>, ObservMatch <dbl>, ExpectMatch <dbl>,
#   PointMeasureExpected <dbl>, RMSR <dbl>, WMLE <dbl>, testeventid <dbl>,
#   ssid <dbl>, asmtprmrydsbltycd <dbl>, asmtscndrydsbltycd <dbl>
…
. . .

We need the file path! An index isn’t nearly as useful

Base method that works

files <- list.files(here::here("data", "pfiles_sim"), 
                    pattern = "*.csv", 
                    full.names = TRUE) 
files <- setNames(files, files)

batch4 <- map_dfr(files, read_csv, .id = "file")
batch4

# A tibble: 15,945 × 23
   file   Entry  Theta Status Count RawScore    SE Infit Infit_Z Outfit Outfit_Z
   <chr>  <dbl>  <dbl>  <dbl> <dbl>    <dbl> <dbl> <dbl>   <dbl>  <dbl>    <dbl>
 1 C:/Us…   123  1.27       1    36       23 0.371  0.93   -0.34   0.82    -0.62
 2 C:/Us…    88  1.55       1    36       25 0.385  0.95   -0.37   0.81    -0.56
 3 C:/Us…   105  3.28       1    36       33 0.619  0.9    -0.04   1.63     1.03
 4 C:/Us…   153  4.48       1    36       35 1.02   0.93    0.23   0.35    -0.16
 5 C:/Us…   437  2.67       1    36       31 0.501  0.92   -0.18   0.88    -0.12
 6 C:/Us…   307  5.71       0    36       36 1.84   1       0      1        0   
 7 C:/Us…   305  3.73       1    36       34 0.741  1.06    0.31   0.86     0.17
 8 C:/Us…    42  0.609      1    36       18 0.36   1.55    2.56   1.74     3.31
 9 C:/Us…    59 -2.62       1    36        3 1.03   0.85    0.06   0.17    -0.37
10 C:/Us…   304  5.71       0    36       36 1.84   1       0      1        0   
# ℹ 15,935 more rows
# ℹ 12 more variables: Displacement <dbl>, PointMeasureCorr <dbl>,
#   Weight <dbl>, ObservMatch <dbl>, ExpectMatch <dbl>,
#   PointMeasureExpected <dbl>, RMSR <dbl>, WMLE <dbl>, testeventid <dbl>,
#   ssid <dbl>, asmtprmrydsbltycd <dbl>, asmtscndrydsbltycd <dbl>
…
map_dbl(by_content$data, ncol)

[1] 26 26 26 26 26

map_dbl(by_content$data, ~mean(.x$Theta))

[1]  1.28001056 -0.06683086  1.37068376  1.57850321  1.26090709

What’s going on here?

My go-to method

by_content$data[[1]]

# A tibble: 3,627 × 26
       ssid grade  year testeventid asmtprmrydsbltycd asmtscndrydsbltycd Entry
      <dbl> <int> <int>       <dbl>             <dbl>              <dbl> <dbl>
 1  9466908    11    11      148933                 0                  0   123
 2  7683685    11    11      147875                10                  0    88
 3  9025693    11    11      143699                40                 20   105
 4 10099824    11    11      143962                82                  0   153
 5 18886078    11    11      150680                10                  0   437
 6 10606750    11    11      144583                80                 80   307
 7 10541306    11    11      145204                50                  0   305
 8  7632967    11    11      148926                10                  0    42
 9  7661118    11    11      148893                50                  0    59
10 10547177    11    11      144583                82                  0   304
# ℹ 3,617 more rows
# ℹ 19 more variables: Theta <dbl>, Status <dbl>, Count <dbl>, RawScore <dbl>,
#   SE <dbl>, Infit <dbl>, Infit_Z <dbl>, Outfit <dbl>, Outfit_Z <dbl>,
#   Displacement <dbl>, PointMeasureCorr <dbl>, Weight <dbl>,
#   ObservMatch <dbl>, ExpectMatch <dbl>, PointMeasureExpected <dbl>,
#   RMSR <dbl>, WMLE <dbl>, primary <fct>, secondary <fct>
…
Select and unnest

tidied <- mods |>
    pivot_longer(
      m1:m3,
      names_to = "model", 
      values_to = "output"
  ) |> 
    mutate(tidy_broom = map(output, broom::tidy)) |>
    select(content, model, tidy_broom) |>
    unnest(tidy_broom)
tidied

# A tibble: 841 × 7
# Groups:   content [5]
   content model term        estimate std.error statistic       p.value
   <chr>   <chr> <chr>          <dbl>     <dbl>     <dbl>         <dbl>
 1 ELA     m1    (Intercept)   0.932      0.215    4.33   0.0000150    
 2 ELA     m1    primary10     0.386      0.224    1.72   0.0856       
 3 ELA     m1    primary20    -0.0317     0.727   -0.0436 0.965        
 4 ELA     m1    primary40    -1.84       0.556   -3.32   0.000916     
 5 ELA     m1    primary50     1.17       0.289    4.06   0.0000500    
 6 ELA     m1    primary60     0.776      0.387    2.01   0.0447       
 7 ELA     m1    primary70    -1.83       0.309   -5.93   0.00000000330
 8 ELA     m1    primary74    -0.765      0.518   -1.48   0.140        
 9 ELA     m1    primary80     0.468      0.243    1.93   0.0542       
10 ELA     m1    primary82     0.338      0.227    1.49   0.136        
# ℹ 831 more rows
…
We’ve kind of been running the wrong models this whole time

We forgot about “grade”!

No problem, just change the grouping factor

By grade

by_grade_content <- d |>
  group_by(content, grade) |>
  nest()
by_grade_content

# A tibble: 31 × 3
# Groups:   content, grade [31]
   grade content data               
   <int> <chr>   <list>             
 1    11 ELA     <tibble [453 × 25]>
 2    11 Math    <tibble [460 × 25]>
 3    11 Rdg     <tibble [453 × 25]>
 4    11 Science <tibble [438 × 25]>
 5    11 Wri     <tibble [453 × 25]>
 6     3 ELA     <tibble [540 × 25]>
 7     3 Math    <tibble [536 × 25]>
 8     3 Rdg     <tibble [540 × 25]>
 9     3 Wri     <tibble [540 × 25]>
10     4 ELA     <tibble [585 × 25]>
# ℹ 21 more rows
…
