EDLD 653 – Week 5: Parallel Iterations & Looping Variants
…
Add it as a list column!

More powerful (this is my preferred method)

sim2 <- conditions |>
  as_tibble() |> # Not required, but definitely helpful
  mutate(sim = map2(n, mu, ~rnorm(n = .x, mean = .y, sd = 10))) 
sim2

# A tibble: 510 × 3
       n    mu sim       
   <dbl> <dbl> <list>    
 1     5    -2 <dbl [5]> 
 2    10    -2 <dbl [10]>
 3    15    -2 <dbl [15]>
 4    20    -2 <dbl [20]>
 5    25    -2 <dbl [25]>
 6    30    -2 <dbl [30]>
 7    35    -2 <dbl [35]>
 8    40    -2 <dbl [40]>
 9    45    -2 <dbl [45]>
10    50    -2 <dbl [50]>
# ℹ 500 more rows

Unnest

conditions |>
  as_tibble() |> 
  mutate(sim = map2(n, mu, ~rnorm(.x, .y, sd = 10))) |>
  unnest(sim)

# A tibble: 39,525 × 3
       n    mu    sim
   <dbl> <dbl>  <dbl>
 1     5    -2 -13.2 
 2     5    -2  -5.45
 3     5    -2  -9.88
 4     5    -2 -19.6 
 5     5    -2   9.73
 6    10    -2  -4.71
 7    10    -2  11.3 
 8    10    -2  11.8 
 9    10    -2   4.81
10    10    -2 -15.3 
# ℹ 39,515 more rows

Challenge

Can you replicate what we just did, but using a rowwise() approach?

conditions |> 
  rowwise() |> 
  mutate(sim = list(rnorm(n, mu, sd = 10))) |> 
  unnest(sim)

# A tibble: 39,525 × 3
       n    mu     sim
   <dbl> <dbl>   <dbl>
 1     5    -2   0.353
 2     5    -2  18.0  
 3     5    -2 -20.6  
 4     5    -2 -14.3  
 5     5    -2  -5.96 
 6    10    -2 -16.7  
 7    10    -2 -17.8  
 8    10    -2  -9.63 
 9    10    -2  15.6  
10    10    -2 -11.2  
# ℹ 39,515 more rows
…
Without list():

row 1 → c(0.3, -1.2, 0.8) ✗ length 3 — doesn’t fit in one row

2) Plots by month, changing the title

Please follow along

The data

library(fivethirtyeight)
pulitzer

# A tibble: 50 × 7
   newspaper             circ2004 circ2013 pctchg_circ num_finals1990_2003
   <chr>                    <dbl>    <dbl>       <int>               <int>
 1 USA Today              2192098  1674306         -24                   1
 2 Wall Street Journal    2101017  2378827          13                  30
 3 New York Times         1119027  1865318          67                  55
 4 Los Angeles Times       983727   653868         -34                  44
 5 Washington Post         760034   474767         -38                  52
 6 New York Daily News     712671   516165         -28                   4
 7 New York Post           642844   500521         -22                   0
 8 Chicago Tribune         603315   414930         -31                  23
 9 San Jose Mercury News   558874   583998           4                   4
10 Newsday                 553117   377744         -32                  12
# ℹ 40 more rows
# ℹ 2 more variables: num_finals2004_2014 <int>, num_finals1990_2014 <int>
…
Nest data

by_newspaper <- pulitzer |>
    group_by(newspaper) |>
    nest()

by_newspaper

# A tibble: 50 × 2
# Groups:   newspaper [50]
   newspaper             data            
   <chr>                 <list>          
 1 USA Today             <tibble [2 × 2]>
 2 Wall Street Journal   <tibble [2 × 2]>
 3 New York Times        <tibble [2 × 2]>
 4 Los Angeles Times     <tibble [2 × 2]>
 5 Washington Post       <tibble [2 × 2]>
 6 New York Daily News   <tibble [2 × 2]>
 7 New York Post         <tibble [2 × 2]>
 8 Chicago Tribune       <tibble [2 × 2]>
 9 San Jose Mercury News <tibble [2 × 2]>
10 Newsday               <tibble [2 × 2]>
# ℹ 40 more rows
…
                   geom_col(aes(fill = n)) +
                 scale_x_continuous(
                   limits = c(0, max(pulitzer$n)),
                   expand = c(0, 0)
                 ) +
                 guides(fill = "none") +
                 labs(
                   title = "Pulitzer Prize winners",
                   x = "Total number of winners",
                   y = ""
                 )
    )
  )

# A tibble: 50 × 3
# Groups:   newspaper [50]
   newspaper             data             plot      
   <chr>                 <list>           <list>    
 1 USA Today             <tibble [2 × 2]> <ggplt2::>
 2 Wall Street Journal   <tibble [2 × 2]> <ggplt2::>
 3 New York Times        <tibble [2 × 2]> <ggplt2::>
 4 Los Angeles Times     <tibble [2 × 2]> <ggplt2::>
 5 Washington Post       <tibble [2 × 2]> <ggplt2::>
 6 New York Daily News   <tibble [2 × 2]> <ggplt2::>
 7 New York Post         <tibble [2 × 2]> <ggplt2::>
 8 Chicago Tribune       <tibble [2 × 2]> <ggplt2::>
 9 San Jose Mercury News <tibble [2 × 2]> <ggplt2::>
10 Newsday               <tibble [2 × 2]> <ggplt2::>
# ℹ 40 more rows
…
p

# A tibble: 50 × 3
# Groups:   newspaper [50]
   newspaper             data             plot      
   <chr>                 <list>           <list>    
 1 USA Today             <tibble [2 × 2]> <ggplt2::>
 2 Wall Street Journal   <tibble [2 × 2]> <ggplt2::>
 3 New York Times        <tibble [2 × 2]> <ggplt2::>
 4 Los Angeles Times     <tibble [2 × 2]> <ggplt2::>
 5 Washington Post       <tibble [2 × 2]> <ggplt2::>
 6 New York Daily News   <tibble [2 × 2]> <ggplt2::>
 7 New York Post         <tibble [2 × 2]> <ggplt2::>
 8 Chicago Tribune       <tibble [2 × 2]> <ggplt2::>
 9 San Jose Mercury News <tibble [2 × 2]> <ggplt2::>
10 Newsday               <tibble [2 × 2]> <ggplt2::>
# ℹ 40 more rows
…
        geom_col(aes(fill = n)) +
        scale_x_continuous(
          limits = c(0, max(pulitzer$n)), 
          expand = c(0, 0)
        ) +
        guides(fill = "none") +
        labs(
          title = glue("Pulitzer Prize winners: {newspaper}"),
          x = "Total number of winners",
          y = ""
        )
    )
  )

# A tibble: 50 × 3
# Rowwise:  newspaper
   newspaper                                  data plot      
   <chr>                        <list<tibble[,2]>> <list>    
 1 Arizona Republic                        [2 × 2] <ggplt2::>
 2 Atlanta Journal Constitution            [2 × 2] <ggplt2::>
 3 Baltimore Sun                           [2 × 2] <ggplt2::>
 4 Boston Globe                            [2 × 2] <ggplt2::>
 5 Boston Herald                           [2 × 2] <ggplt2::>
 6 Charlotte Observer                      [2 × 2] <ggplt2::>
 7 Chicago Sun-Times                       [2 × 2] <ggplt2::>
 8 Chicago Tribune                         [2 × 2] <ggplt2::>
 9 Cleveland Plain Dealer                  [2 × 2] <ggplt2::>
10 Columbus Dispatch                       [2 × 2] <ggplt2::>
# ℹ 40 more rows
…
List column version

This I like best

full_conditions |>
    as_tibble() |>
    mutate(sim = pmap(list(n, mu, sd), ~rnorm(..1, ..2, ..3)))

# A tibble: 10,710 × 4
       n    mu    sd sim       
   <dbl> <dbl> <dbl> <list>    
 1     5    -2     1 <dbl [5]> 
 2    10    -2     1 <dbl [10]>
 3    15    -2     1 <dbl [15]>
 4    20    -2     1 <dbl [20]>
 5    25    -2     1 <dbl [25]>
 6    30    -2     1 <dbl [30]>
 7    35    -2     1 <dbl [35]>
 8    40    -2     1 <dbl [40]>
 9    45    -2     1 <dbl [45]>
10    50    -2     1 <dbl [50]>
# ℹ 10,700 more rows

Unnest

full_conditions |>
    as_tibble() |>
    mutate(sim = pmap(list(n, mu, sd), ~rnorm(..1, ..2, ..3))) |>
    unnest(sim)

# A tibble: 830,025 × 4
       n    mu    sd    sim
   <dbl> <dbl> <dbl>  <dbl>
 1     5    -2     1 -3.11 
 2     5    -2     1 -2.29 
 3     5    -2     1 -0.742
 4     5    -2     1 -3.34 
 5     5    -2     1 -2.40 
 6    10    -2     1 -1.09 
 7    10    -2     1 -2.30 
 8    10    -2     1 -0.303
 9    10    -2     1 -3.50 
10    10    -2     1 -1.03 
# ℹ 830,015 more rows

Replicate with rowwise()`

You try first

full_conditions |> 
  rowwise() |> 
  mutate(sim = list(rnorm(n, mu, sd))) |> 
  unnest(sim)

# A tibble: 830,025 × 4
       n    mu    sd    sim
   <dbl> <dbl> <dbl>  <dbl>
 1     5    -2     1 -4.21 
 2     5    -2     1 -0.923
 3     5    -2     1 -0.840
 4     5    -2     1 -1.68 
 5     5    -2     1 -0.623
 6    10    -2     1 -0.284
 7    10    -2     1 -2.80 
 8    10    -2     1 -2.74 
 9    10    -2     1 -2.32 
10    10    -2     1 -2.97 
# ℹ 830,015 more rows

Plot Caption

Add a caption stating the total number of Pulitzer prize winners across years

pulitzer

# A tibble: 100 × 3
   newspaper           year_range     n
   <chr>               <chr>      <int>
 1 USA Today           1990-2003      1
 2 USA Today           2004-2014      1
 3 Wall Street Journal 1990-2003     30
 4 Wall Street Journal 2004-2014     20
 5 New York Times      1990-2003     55
 6 New York Times      2004-2014     62
 7 Los Angeles Times   1990-2003     44
 8 Los Angeles Times   2004-2014     41
 9 Washington Post     1990-2003     52
10 Washington Post     2004-2014     48
# ℹ 90 more rows

Add column for total Pulitzers

pulitzer <- pulitzer |>
    group_by(newspaper) |>
    mutate(tot = sum(n))
pulitzer

# A tibble: 100 × 4
# Groups:   newspaper [50]
   newspaper           year_range     n   tot
   <chr>               <chr>      <int> <int>
 1 USA Today           1990-2003      1     2
 2 USA Today           2004-2014      1     2
 3 Wall Street Journal 1990-2003     30    50
 4 Wall Street Journal 2004-2014     20    50
 5 New York Times      1990-2003     55   117
 6 New York Times      2004-2014     62   117
 7 Los Angeles Times   1990-2003     44    85
 8 Los Angeles Times   2004-2014     41    85
 9 Washington Post     1990-2003     52   100
10 Washington Post     2004-2014     48   100
# ℹ 90 more rows
…
Create a column to represent exactly the label you want

#install.packages("english")
library(english)
pulitzer <- pulitzer |>
    mutate(
      label = glue(
        "{str_to_title(as.english(tot))} Total Pulitzer Awards"
    )
)

select(pulitzer, newspaper, label)

# A tibble: 100 × 2
# Groups:   newspaper [50]
   newspaper           label                                      
   <chr>               <glue>                                     
 1 USA Today           Two Total Pulitzer Awards                  
 2 USA Today           Two Total Pulitzer Awards                  
 3 Wall Street Journal Fifty Total Pulitzer Awards                
 4 Wall Street Journal Fifty Total Pulitzer Awards                
 5 New York Times      One Hundred Seventeen Total Pulitzer Awards
 6 New York Times      One Hundred Seventeen Total Pulitzer Awards
 7 Los Angeles Times   Eighty-Five Total Pulitzer Awards          
 8 Los Angeles Times   Eighty-Five Total Pulitzer Awards          
 9 Washington Post     One Hundred Total Pulitzer Awards          
10 Washington Post     One Hundred Total Pulitzer Awards          
# ℹ 90 more rows
…
Produce all plots

First nest

by_newspaper_label <- pulitzer |>
    group_by(newspaper, label) |>
    nest() 

by_newspaper_label

# A tibble: 50 × 3
# Groups:   newspaper, label [50]
   newspaper             label                                       data    
   <chr>                 <glue>                                      <list>  
 1 USA Today             Two Total Pulitzer Awards                   <tibble>
 2 Wall Street Journal   Fifty Total Pulitzer Awards                 <tibble>
 3 New York Times        One Hundred Seventeen Total Pulitzer Awards <tibble>
 4 Los Angeles Times     Eighty-Five Total Pulitzer Awards           <tibble>
 5 Washington Post       One Hundred Total Pulitzer Awards           <tibble>
 6 New York Daily News   Six Total Pulitzer Awards                   <tibble>
 7 New York Post         Zero Total Pulitzer Awards                  <tibble>
 8 Chicago Tribune       Thirty-Eight Total Pulitzer Awards          <tibble>
 9 San Jose Mercury News Six Total Pulitzer Awards                   <tibble>
10 Newsday               Eighteen Total Pulitzer Awards              <tibble>
# ℹ 40 more rows
…
final_plots2

# A tibble: 50 × 4
# Rowwise:  newspaper, label
   newspaper                    label                            data plots     
   <chr>                        <glue>                        <list<> <list>    
 1 Arizona Republic             Seven Total Pulitzer Awards   [2 × 3] <ggplt2::>
 2 Atlanta Journal Constitution Six Total Pulitzer Awards     [2 × 3] <ggplt2::>
 3 Baltimore Sun                Thirteen Total Pulitzer Awar… [2 × 3] <ggplt2::>
 4 Boston Globe                 Forty-One Total Pulitzer Awa… [2 × 3] <ggplt2::>
 5 Boston Herald                Zero Total Pulitzer Awards    [2 × 3] <ggplt2::>
 6 Charlotte Observer           Four Total Pulitzer Awards    [2 × 3] <ggplt2::>
 7 Chicago Sun-Times            Two Total Pulitzer Awards     [2 × 3] <ggplt2::>
 8 Chicago Tribune              Thirty-Eight Total Pulitzer … [2 × 3] <ggplt2::>
 9 Cleveland Plain Dealer       Eleven Total Pulitzer Awards  [2 × 3] <ggplt2::>
10 Columbus Dispatch            One Total Pulitzer Awards     [2 × 3] <ggplt2::>
# ℹ 40 more rows
…
Add paths to data frame

final_plots |> 
  ungroup() |> 
  mutate(path = paths) |> 
  select(plots, path)

# A tibble: 50 × 2
   plots      path                                                              
   <list>     <chr>                                                             
 1 <ggplt2::> C:/Users/jnese/Desktop/BRT/Teaching/3_Functional-Programming/func…
 2 <ggplt2::> C:/Users/jnese/Desktop/BRT/Teaching/3_Functional-Programming/func…
 3 <ggplt2::> C:/Users/jnese/Desktop/BRT/Teaching/3_Functional-Programming/func…
 4 <ggplt2::> C:/Users/jnese/Desktop/BRT/Teaching/3_Functional-Programming/func…
 5 <ggplt2::> C:/Users/jnese/Desktop/BRT/Teaching/3_Functional-Programming/func…
 6 <ggplt2::> C:/Users/jnese/Desktop/BRT/Teaching/3_Functional-Programming/func…
 7 <ggplt2::> C:/Users/jnese/Desktop/BRT/Teaching/3_Functional-Programming/func…
 8 <ggplt2::> C:/Users/jnese/Desktop/BRT/Teaching/3_Functional-Programming/func…
 9 <ggplt2::> C:/Users/jnese/Desktop/BRT/Teaching/3_Functional-Programming/func…
10 <ggplt2::> C:/Users/jnese/Desktop/BRT/Teaching/3_Functional-Programming/func…
# ℹ 40 more rows
…
saving

printing

walk() family

Just like map(), we have parallel variants of walk(), including, walk2(), and pwalk()

These work just like map() but don’t print to the screen

Let’s make a list column

final_plots

# A tibble: 50 × 4
# Groups:   newspaper, label [50]
   newspaper             label                               data     plots     
   <chr>                 <glue>                              <list>   <list>    
 1 USA Today             Two Total Pulitzer Awards           <tibble> <ggplt2::>
 2 Wall Street Journal   Fifty Total Pulitzer Awards         <tibble> <ggplt2::>
 3 New York Times        One Hundred Seventeen Total Pulitz… <tibble> <ggplt2::>
 4 Los Angeles Times     Eighty-Five Total Pulitzer Awards   <tibble> <ggplt2::>
 5 Washington Post       One Hundred Total Pulitzer Awards   <tibble> <ggplt2::>
 6 New York Daily News   Six Total Pulitzer Awards           <tibble> <ggplt2::>
 7 New York Post         Zero Total Pulitzer Awards          <tibble> <ggplt2::>
 8 Chicago Tribune       Thirty-Eight Total Pulitzer Awards  <tibble> <ggplt2::>
 9 San Jose Mercury News Six Total Pulitzer Awards           <tibble> <ggplt2::>
10 Newsday               Eighteen Total Pulitzer Awards      <tibble> <ggplt2::>
# ℹ 40 more rows
…
